<?xml version="1.0" encoding="UTF-8"?>
<svg width="25px" height="24px" viewBox="0 0 25 24" version="1.1" xmlns="http://www.w3.org/2000/svg" xmlns:xlink="http://www.w3.org/1999/xlink">
    <!-- Generator: Sketch 48.1 (47250) - http://www.bohemiancoding.com/sketch -->
    <defs>
        <polygon id="path-1" points="23.4769939 17.679724 23.4769939 19.2061281 20.0970992 19.2061281 20.0970992 22.8858521 18.3798947 22.8858521 18.3798947 19.2061281 15 19.2061281 15 17.679724 18.3798947 17.679724 18.3798947 14 20.0970992 14 20.0970992 17.679724"></polygon>
    </defs>
    <g id="Ajout-rapide" stroke="none" stroke-width="1" fill="none" fill-rule="evenodd" transform="translate(-214.000000, -545.000000)">
        <g id="Group-14" transform="translate(0.000000, 519.000000)">
            <g id="Group-10" transform="translate(203.000000, 15.000000)">
                <g id="Group-9" transform="translate(11.000000, 11.000000)">
                    <g id="Group-8" fill="#FFFFFF" fill-rule="nonzero">
                        <path d="M20.1617843,6.49100203 C19.0546176,3.87583529 17.1731961,1.973899 14.5703971,0.849229553 C13.2694951,0.287120799 11.9065882,0 10.4827402,0 C9.05913235,0 7.70627941,0.284409161 6.40681863,0.849229553 C3.82556863,1.97090925 1.93580882,3.87162877 0.826686275,6.49100203 C0.270906863,7.803296 0,9.17813148 0,10.620445 C0,12.0630367 0.270906863,13.449275 0.826686275,14.7618471 C1.93580882,17.3812203 3.82580882,19.2933427 6.40681863,20.4153005 C7.70651961,20.9801209 9.05909804,21.2642519 10.4827402,21.2642519 C11.9063824,21.2642519 13.2694951,20.9771311 14.5701912,20.4153005 C17.1729902,19.2905963 19.0544118,17.3767705 20.1618186,14.7618471 C20.7192794,13.4450685 21,12.0630367 21,10.620445 C21,9.17813148 20.7195196,7.80774587 20.1617843,6.49100203 Z M18.4856275,15.320236 C17.6613775,16.7523636 16.5321814,17.8885053 15.1100147,18.7285223 C13.6964608,19.5636026 12.1476422,19.9847409 10.4829804,19.9847409 C9.23155882,19.9847409 8.03744118,19.7405544 6.90062745,19.2402571 C5.76384804,18.7402032 4.78233824,18.0828047 3.96127941,17.2512008 C3.14022059,16.4193535 2.48671569,15.4152477 1.99805392,14.2615498 C1.51083333,13.1120584 1.27472059,11.888588 1.27472059,10.6204798 C1.27472059,8.93370161 1.68377451,7.37249313 2.50339216,5.94432876 C3.32592647,4.51094969 4.45536275,3.37359117 5.86747549,2.53600776 C7.27934804,1.69845911 8.81811275,1.27954572 10.4827402,1.27954572 C12.1476422,1.27954572 13.6961863,1.70092739 15.1097745,2.53600776 C16.5319412,3.37605946 17.658701,4.51338322 18.4853873,5.94429399 C19.3120735,7.37496141 19.7253137,8.93370161 19.7253137,10.620445 C19.7253137,12.307258 19.3147843,13.8791045 18.4856275,15.320236 Z" id="Shape"></path>
                        <path d="M10.9423381,11.4299004 L10.9423381,4.31338401 C10.9423381,3.88753197 10.5577991,3.54404198 10.116411,3.54404198 C9.70361762,3.54404198 9.33333333,3.88753197 9.33333333,4.31338401 L9.33333333,11.5397712 C9.33333333,11.5535667 9.36188548,11.6086663 9.36188548,11.6497241 C9.33333333,11.8970566 9.40473497,12.103126 9.57545211,12.2681375 L13.8328704,16.3758114 C14.1177536,16.6506937 14.6444577,16.6506937 14.9291281,16.3758114 C15.2565203,16.0598712 15.2349892,15.6014603 14.9291281,15.3042425 L10.9423381,11.4299004 Z" id="Shape"></path>
                    </g>
                    <g id="+">
                        <use fill="#FFFFFF" fill-rule="evenodd" xlink:href="#path-1"></use>
                        <use fill="#FFF" fill-opacity="1" xlink:href="#path-1"></use>
                    </g>
                </g>
            </g>
        </g>
    </g>
</svg>