<svg xmlns="http://www.w3.org/2000/svg" width="14" height="23" viewBox="0 0 14 23">
  <path fill="#ABB4D0" d="M39.8892932,7.89388939 C39.8263643,7.75928974 39.6925675,7.67297161 39.5450718,7.67181727 L35.0394828,7.67181727 L39.4862087,0.588749356 C39.5577626,0.470205413 39.5609815,0.322092787 39.4946464,0.200498113 C39.4283113,0.0789034399 39.3025636,0.00241610669 39.1650207,0 L33.0816437,0 C32.9378305,0.000679088222 32.8064557,0.082403974 32.7412612,0.211743189 L27.0379354,11.7194691 C26.9811505,11.8385927 26.9884954,11.97871 27.0574175,12.0911252 C27.1263396,12.2035405 27.2473215,12.2727305 27.3783178,12.2746494 L31.2875978,12.2746494 L27.0276983,22.4835116 C26.9673266,22.6557541 27.0344491,22.8471412 27.1887552,22.9427355 C27.3430614,23.0383297 27.5425904,23.0121358 27.667515,22.8798845 L39.834269,8.30317348 C39.9291869,8.18881619 39.9505884,8.02962663 39.8892932,7.89388939 L39.8892932,7.89388939 Z" transform="translate(-26.25)"/>
</svg>
