<svg xmlns="http://www.w3.org/2000/svg" xmlns:xlink="http://www.w3.org/1999/xlink" width="375" height="667" viewBox="0 0 375 667">
  <defs>
    <polygon id="background-app-ttk-a" points="0 0 274.819 0 375 0 375 293.362 375 668.174 0 668.174"/>
    <filter id="background-app-ttk-b" width="141.6%" height="123.3%" x="-17.9%" y="-11.7%" filterUnits="objectBoundingBox">
      <feOffset dx="6" in="SourceAlpha" result="shadowOffsetOuter1"/>
      <feGaussianBlur in="shadowOffsetOuter1" result="shadowBlurOuter1" stdDeviation="15"/>
      <feColorMatrix in="shadowBlurOuter1" result="shadowMatrixOuter1" values="0 0 0 0 0   0 0 0 0 0   0 0 0 0 0  0 0 0 0.108893795 0"/>
      <feOffset dx="5" in="SourceAlpha" result="shadowOffsetOuter2"/>
      <feGaussianBlur in="shadowOffsetOuter2" result="shadowBlurOuter2" stdDeviation="15"/>
      <feColorMatrix in="shadowBlurOuter2" result="shadowMatrixOuter2" values="0 0 0 0 0.231502046   0 0 0 0 0.382270605   0 0 0 0 0.558062287  0 0 0 0.106119792 0"/>
      <feMerge>
        <feMergeNode in="shadowMatrixOuter1"/>
        <feMergeNode in="shadowMatrixOuter2"/>
      </feMerge>
    </filter>
  </defs>
  <g fill="none" fill-rule="evenodd">
    <mask id="background-app-ttk-c" fill="#fff">
      <use xlink:href="#background-app-ttk-a"/>
    </mask>
    <use fill="#000" filter="url(#background-app-ttk-b)" xlink:href="#background-app-ttk-a"/>
    <use fill="#2C2C2C" xlink:href="#background-app-ttk-a"/>
    <g mask="url(#background-app-ttk-c)">
      <g transform="translate(-504 -618)">
        <circle cx="498" cy="649" r="498" fill="#363636" stroke="#393939"/>
        <circle cx="1118" cy="498" r="498" fill="#3D3D3D" stroke="#404040"/>
      </g>
    </g>
  </g>
</svg>
