<svg xmlns="http://www.w3.org/2000/svg" width="5" height="16" viewBox="0 0 5 16">
  <g fill="#FFF" fill-rule="evenodd" transform="translate(-.5 .5)">
    <circle cx="2.814" cy="2.192" r="1.864"/>
    <circle cx="2.814" cy="7.502" r="1.864"/>
    <circle cx="2.814" cy="12.813" r="1.864"/>
  </g>
</svg>
